2015-12-20 15:26:14 DEBUG InjectionMetadata:72 - Registered injected element on class [com.epam.newsmanagement.service.impl.NewsHandlingServiceImpl]: AutowiredFieldElement for private com.epam.newsmanagement.service.IAuthorService com.epam.newsmanagement.service.impl.NewsHandlingServiceImpl.authorServiceImpl
2015-12-20 15:26:14 DEBUG InjectionMetadata:72 - Registered injected element on class [com.epam.newsmanagement.service.impl.NewsHandlingServiceImpl]: AutowiredFieldElement for private com.epam.newsmanagement.service.ITagService com.epam.newsmanagement.service.impl.NewsHandlingServiceImpl.tagServiceImpl
2015-12-20 15:26:14 DEBUG InjectionMetadata:72 - Registered injected element on class [com.epam.newsmanagement.service.impl.NewsHandlingServiceImpl]: AutowiredFieldElement for private com.epam.newsmanagement.service.ICommentService com.epam.newsmanagement.service.impl.NewsHandlingServiceImpl.commentServiceImpl
2015-12-20 15:26:14 DEBUG DefaultListableBeanFactory:529 - Eagerly caching bean 'newsHandlingServiceImpl' to allow for resolving potential circular references
2015-12-20 15:26:14 DEBUG InjectionMetadata:86 - Processing injected element of bean 'newsHandlingServiceImpl': AutowiredFieldElement for private com.epam.newsmanagement.service.INewsService com.epam.newsmanagement.service.impl.NewsHandlingServiceImpl.newsServiceImpl
2015-12-20 15:26:14 DEBUG DefaultListableBeanFactory:221 - Creating shared instance of singleton bean 'newsServiceImpl'
2015-12-20 15:26:14 DEBUG DefaultListableBeanFactory:448 - Creating instance of bean 'newsServiceImpl'
2015-12-20 15:26:14 DEBUG DefaultListableBeanFactory:529 - Eagerly caching bean 'newsServiceImpl' to allow for resolving potential circular references
2015-12-20 15:26:14 DEBUG DefaultListableBeanFactory:250 - Returning cached instance of singleton bean 'org.springframework.transaction.config.internalTransactionAdvisor'
2015-12-20 15:26:14 DEBUG DefaultListableBeanFactory:484 - Finished creating instance of bean 'newsServiceImpl'
2015-12-20 15:26:14 DEBUG AutowiredAnnotationBeanPostProcessor:490 - Autowiring by type from bean name 'newsHandlingServiceImpl' to bean named 'newsServiceImpl'
2015-12-20 15:26:14 DEBUG InjectionMetadata:86 - Processing injected element of bean 'newsHandlingServiceImpl': AutowiredFieldElement for private com.epam.newsmanagement.service.IAuthorService com.epam.newsmanagement.service.impl.NewsHandlingServiceImpl.authorServiceImpl
2015-12-20 15:26:14 DEBUG DefaultListableBeanFactory:250 - Returning cached instance of singleton bean 'authorServiceImpl'
2015-12-20 15:26:14 DEBUG AutowiredAnnotationBeanPostProcessor:490 - Autowiring by type from bean name 'newsHandlingServiceImpl' to bean named 'authorServiceImpl'
2015-12-20 15:26:14 DEBUG InjectionMetadata:86 - Processing injected element of bean 'newsHandlingServiceImpl': AutowiredFieldElement for private com.epam.newsmanagement.service.ITagService com.epam.newsmanagement.service.impl.NewsHandlingServiceImpl.tagServiceImpl
2015-12-20 15:26:14 DEBUG DefaultListableBeanFactory:221 - Creating shared instance of singleton bean 'tagServiceImpl'
2015-12-20 15:26:14 DEBUG DefaultListableBeanFactory:448 - Creating instance of bean 'tagServiceImpl'
2015-12-20 15:26:14 DEBUG DefaultListableBeanFactory:529 - Eagerly caching bean 'tagServiceImpl' to allow for resolving potential circular references
2015-12-20 15:26:14 DEBUG DefaultListableBeanFactory:250 - Returning cached instance of singleton bean 'org.springframework.transaction.config.internalTransactionAdvisor'
2015-12-20 15:26:14 DEBUG DefaultListableBeanFactory:484 - Finished creating instance of bean 'tagServiceImpl'
2015-12-20 15:26:14 DEBUG AutowiredAnnotationBeanPostProcessor:490 - Autowiring by type from bean name 'newsHandlingServiceImpl' to bean named 'tagServiceImpl'
2015-12-20 15:26:14 DEBUG InjectionMetadata:86 - Processing injected element of bean 'newsHandlingServiceImpl': AutowiredFieldElement for private com.epam.newsmanagement.service.ICommentService com.epam.newsmanagement.service.impl.NewsHandlingServiceImpl.commentServiceImpl
2015-12-20 15:26:14 DEBUG DefaultListableBeanFactory:250 - Returning cached instance of singleton bean 'commentServiceImpl'
2015-12-20 15:26:14 DEBUG AutowiredAnnotationBeanPostProcessor:490 - Autowiring by type from bean name 'newsHandlingServiceImpl' to bean named 'commentServiceImpl'
2015-12-20 15:26:14 DEBUG DefaultListableBeanFactory:250 - Returning cached instance of singleton bean 'org.springframework.transaction.config.internalTransactionAdvisor'
2015-12-20 15:26:14 DEBUG AnnotationTransactionAttributeSource:108 - Adding transactional method 'NewsHandlingServiceImpl.saveAuthor' with attribute: PROPAGATION_REQUIRED,ISOLATION_DEFAULT; '',-com.epam.newsmanagement.exception.ServiceException
2015-12-20 15:26:14 DEBUG InfrastructureAdvisorAutoProxyCreator:505 - Creating implicit proxy for bean 'newsHandlingServiceImpl' with 0 common interceptors and 1 specific interceptors
2015-12-20 15:26:14 DEBUG JdkDynamicAopProxy:117 - Creating JDK dynamic proxy: target source is SingletonTargetSource for target object [com.epam.newsmanagement.service.impl.NewsHandlingServiceImpl@72967906]
2015-12-20 15:26:14 DEBUG DefaultListableBeanFactory:484 - Finished creating instance of bean 'newsHandlingServiceImpl'
2015-12-20 15:26:14 DEBUG DefaultListableBeanFactory:250 - Returning cached instance of singleton bean 'newsServiceImpl'
2015-12-20 15:26:14 DEBUG DefaultListableBeanFactory:250 - Returning cached instance of singleton bean 'tagServiceImpl'
2015-12-20 15:26:14 DEBUG DefaultListableBeanFactory:221 - Creating shared instance of singleton bean 'runner'
2015-12-20 15:26:14 DEBUG DefaultListableBeanFactory:448 - Creating instance of bean 'runner'
2015-12-20 15:26:14 DEBUG DefaultListableBeanFactory:529 - Eagerly caching bean 'runner' to allow for resolving potential circular references
2015-12-20 15:26:14 DEBUG DefaultListableBeanFactory:250 - Returning cached instance of singleton bean 'org.springframework.transaction.config.internalTransactionAdvisor'
2015-12-20 15:26:14 DEBUG DefaultListableBeanFactory:484 - Finished creating instance of bean 'runner'
2015-12-20 15:26:14 DEBUG DefaultListableBeanFactory:250 - Returning cached instance of singleton bean 'org.springframework.transaction.annotation.ProxyTransactionManagementConfiguration'
2015-12-20 15:26:14 DEBUG DefaultListableBeanFactory:250 - Returning cached instance of singleton bean 'org.springframework.transaction.config.internalTransactionAdvisor'
2015-12-20 15:26:14 DEBUG DefaultListableBeanFactory:250 - Returning cached instance of singleton bean 'transactionAttributeSource'
2015-12-20 15:26:14 DEBUG DefaultListableBeanFactory:250 - Returning cached instance of singleton bean 'transactionInterceptor'
2015-12-20 15:26:14 DEBUG DefaultListableBeanFactory:221 - Creating shared instance of singleton bean 'org.springframework.transaction.config.internalTransactionalEventListenerFactory'
2015-12-20 15:26:14 DEBUG DefaultListableBeanFactory:448 - Creating instance of bean 'org.springframework.transaction.config.internalTransactionalEventListenerFactory'
2015-12-20 15:26:14 DEBUG DefaultListableBeanFactory:250 - Returning cached instance of singleton bean 'org.springframework.transaction.annotation.ProxyTransactionManagementConfiguration'
2015-12-20 15:26:14 DEBUG DefaultListableBeanFactory:529 - Eagerly caching bean 'org.springframework.transaction.config.internalTransactionalEventListenerFactory' to allow for resolving potential circular references
2015-12-20 15:26:14 DEBUG DefaultListableBeanFactory:250 - Returning cached instance of singleton bean 'org.springframework.transaction.config.internalTransactionAdvisor'
2015-12-20 15:26:14 DEBUG DefaultListableBeanFactory:484 - Finished creating instance of bean 'org.springframework.transaction.config.internalTransactionalEventListenerFactory'
2015-12-20 15:26:14 DEBUG DefaultListableBeanFactory:250 - Returning cached instance of singleton bean 'dataSource'
2015-12-20 15:26:14 DEBUG DefaultListableBeanFactory:221 - Creating shared instance of singleton bean 'txManager'
2015-12-20 15:26:14 DEBUG DefaultListableBeanFactory:448 - Creating instance of bean 'txManager'
2015-12-20 15:26:14 DEBUG DefaultListableBeanFactory:250 - Returning cached instance of singleton bean 'applicationConfig'
2015-12-20 15:26:14 DEBUG DefaultListableBeanFactory:250 - Returning cached instance of singleton bean 'dataSource'
2015-12-20 15:26:14 DEBUG DefaultListableBeanFactory:529 - Eagerly caching bean 'txManager' to allow for resolving potential circular references
2015-12-20 15:26:14 DEBUG DefaultListableBeanFactory:1620 - Invoking afterPropertiesSet() on bean with name 'txManager'
2015-12-20 15:26:14 DEBUG DefaultListableBeanFactory:250 - Returning cached instance of singleton bean 'org.springframework.transaction.config.internalTransactionAdvisor'
2015-12-20 15:26:14 DEBUG DefaultListableBeanFactory:484 - Finished creating instance of bean 'txManager'
2015-12-20 15:26:14 DEBUG DefaultListableBeanFactory:250 - Returning cached instance of singleton bean 'org.springframework.aop.config.internalAutoProxyCreator'
2015-12-20 15:26:14 DEBUG DefaultListableBeanFactory:250 - Returning cached instance of singleton bean 'org.springframework.context.event.internalEventListenerFactory'
2015-12-20 15:26:14 DEBUG DefaultListableBeanFactory:250 - Returning cached instance of singleton bean 'org.springframework.transaction.config.internalTransactionalEventListenerFactory'
2015-12-20 15:26:14 DEBUG DefaultListableBeanFactory:250 - Returning cached instance of singleton bean 'newsHandlingServiceImpl'
2015-12-20 15:26:14 DEBUG AnnotationConfigApplicationContext:764 - Unable to locate LifecycleProcessor with name 'lifecycleProcessor': using default [org.springframework.context.support.DefaultLifecycleProcessor@74235045]
2015-12-20 15:26:14 DEBUG DefaultListableBeanFactory:250 - Returning cached instance of singleton bean 'lifecycleProcessor'
2015-12-20 15:26:14 DEBUG PropertySourcesPropertyResolver:81 - Searching for key 'spring.liveBeansView.mbeanDomain' in [systemProperties]
2015-12-20 15:26:14 DEBUG PropertySourcesPropertyResolver:81 - Searching for key 'spring.liveBeansView.mbeanDomain' in [systemEnvironment]
2015-12-20 15:26:14 DEBUG PropertySourcesPropertyResolver:81 - Searching for key 'spring.liveBeansView.mbeanDomain' in [class path resource [db.properties]]
2015-12-20 15:26:14 DEBUG PropertySourcesPropertyResolver:103 - Could not find key 'spring.liveBeansView.mbeanDomain' in any property source. Returning [null]
2015-12-20 15:26:14 DEBUG DefaultListableBeanFactory:250 - Returning cached instance of singleton bean 'newsHandlingServiceImpl'
2015-12-20 15:26:52 DEBUG StandardEnvironment:109 - Adding [systemProperties] PropertySource with lowest search precedence
2015-12-20 15:26:52 DEBUG StandardEnvironment:109 - Adding [systemEnvironment] PropertySource with lowest search precedence
2015-12-20 15:26:52 DEBUG StandardEnvironment:126 - Initialized StandardEnvironment with PropertySources [systemProperties,systemEnvironment]
2015-12-20 15:26:52 INFO  AnnotationConfigApplicationContext:573 - Refreshing org.springframework.context.annotation.AnnotationConfigApplicationContext@4c98385c: startup date [Sun Dec 20 15:26:52 MSK 2015]; root of context hierarchy
2015-12-20 15:26:52 DEBUG AnnotationConfigApplicationContext:607 - Bean factory for org.springframework.context.annotation.AnnotationConfigApplicationContext@4c98385c: org.springframework.beans.factory.support.DefaultListableBeanFactory@6a41eaa2: defining beans [org.springframework.context.annotation.internalConfigurationAnnotationProcessor,org.springframework.context.annotation.internalAutowiredAnnotationProcessor,org.springframework.context.annotation.internalRequiredAnnotationProcessor,org.springframework.context.annotation.internalCommonAnnotationProcessor,org.springframework.context.event.internalEventListenerProcessor,org.springframework.context.event.internalEventListenerFactory,applicationConfig]; root of factory hierarchy
2015-12-20 15:26:52 DEBUG DefaultListableBeanFactory:221 - Creating shared instance of singleton bean 'org.springframework.context.annotation.internalConfigurationAnnotationProcessor'
2015-12-20 15:26:52 DEBUG DefaultListableBeanFactory:448 - Creating instance of bean 'org.springframework.context.annotation.internalConfigurationAnnotationProcessor'
2015-12-20 15:26:52 DEBUG DefaultListableBeanFactory:529 - Eagerly caching bean 'org.springframework.context.annotation.internalConfigurationAnnotationProcessor' to allow for resolving potential circular references
2015-12-20 15:26:52 DEBUG DefaultListableBeanFactory:484 - Finished creating instance of bean 'org.springframework.context.annotation.internalConfigurationAnnotationProcessor'
2015-12-20 15:26:52 DEBUG StandardEnvironment:109 - Adding [class path resource [db.properties]] PropertySource with lowest search precedence
2015-12-20 15:26:52 DEBUG StandardEnvironment:109 - Adding [systemProperties] PropertySource with lowest search precedence
2015-12-20 15:26:52 DEBUG StandardEnvironment:109 - Adding [systemEnvironment] PropertySource with lowest search precedence
2015-12-20 15:26:52 DEBUG StandardEnvironment:126 - Initialized StandardEnvironment with PropertySources [systemProperties,systemEnvironment]
2015-12-20 15:26:52 DEBUG PathMatchingResourcePatternResolver:631 - Looking for matching resources in directory tree [C:\Users\Palina_Talkachova@epam.com\Eclipse\workspace\news-management\news-common\target\classes\com\epam\newsmanagement\dao]
2015-12-20 15:26:52 DEBUG PathMatchingResourcePatternResolver:693 - Searching directory [C:\Users\Palina_Talkachova@epam.com\Eclipse\workspace\news-management\news-common\target\classes\com\epam\newsmanagement\dao] for files matching pattern [C:/Users/Palina_Talkachova@epam.com/Eclipse/workspace/news-management/news-common/target/classes/com/epam/newsmanagement/dao/**/*.class]
2015-12-20 15:26:52 DEBUG PathMatchingResourcePatternResolver:693 - Searching directory [C:\Users\Palina_Talkachova@epam.com\Eclipse\workspace\news-management\news-common\target\classes\com\epam\newsmanagement\dao\impl] for files matching pattern [C:/Users/Palina_Talkachova@epam.com/Eclipse/workspace/news-management/news-common/target/classes/com/epam/newsmanagement/dao/**/*.class]
2015-12-20 15:26:52 DEBUG PathMatchingResourcePatternResolver:424 - Resolved location pattern [classpath*:com/epam/newsmanagement/dao/**/*.class] to resources [file [C:\Users\Palina_Talkachova@epam.com\Eclipse\workspace\news-management\news-common\target\classes\com\epam\newsmanagement\dao\IAuthorDao.class], file [C:\Users\Palina_Talkachova@epam.com\Eclipse\workspace\news-management\news-common\target\classes\com\epam\newsmanagement\dao\ICommentDao.class], file [C:\Users\Palina_Talkachova@epam.com\Eclipse\workspace\news-management\news-common\target\classes\com\epam\newsmanagement\dao\IDao.class], file [C:\Users\Palina_Talkachova@epam.com\Eclipse\workspace\news-management\news-common\target\classes\com\epam\newsmanagement\dao\impl\AuthorDaoImpl.class], file [C:\Users\Palina_Talkachova@epam.com\Eclipse\workspace\news-management\news-common\target\classes\com\epam\newsmanagement\dao\impl\CommentDaoImpl.class], file [C:\Users\Palina_Talkachova@epam.com\Eclipse\workspace\news-management\news-common\target\classes\com\epam\newsmanagement\dao\impl\NewsDaoImpl.class], file [C:\Users\Palina_Talkachova@epam.com\Eclipse\workspace\news-management\news-common\target\classes\com\epam\newsmanagement\dao\impl\TagDaoImpl.class], file [C:\Users\Palina_Talkachova@epam.com\Eclipse\workspace\news-management\news-common\target\classes\com\epam\newsmanagement\dao\INewsDao.class], file [C:\Users\Palina_Talkachova@epam.com\Eclipse\workspace\news-management\news-common\target\classes\com\epam\newsmanagement\dao\ITagDao.class]]
2015-12-20 15:26:52 DEBUG ClassPathBeanDefinitionScanner:286 - Identified candidate component class: file [C:\Users\Palina_Talkachova@epam.com\Eclipse\workspace\news-management\news-common\target\classes\com\epam\newsmanagement\dao\impl\AuthorDaoImpl.class]
2015-12-20 15:26:52 DEBUG ClassPathBeanDefinitionScanner:286 - Identified candidate component class: file [C:\Users\Palina_Talkachova@epam.com\Eclipse\workspace\news-management\news-common\target\classes\com\epam\newsmanagement\dao\impl\CommentDaoImpl.class]
2015-12-20 15:26:52 DEBUG ClassPathBeanDefinitionScanner:286 - Identified candidate component class: file [C:\Users\Palina_Talkachova@epam.com\Eclipse\workspace\news-management\news-common\target\classes\com\epam\newsmanagement\dao\impl\NewsDaoImpl.class]
2015-12-20 15:26:52 DEBUG ClassPathBeanDefinitionScanner:286 - Identified candidate component class: file [C:\Users\Palina_Talkachova@epam.com\Eclipse\workspace\news-management\news-common\target\classes\com\epam\newsmanagement\dao\impl\TagDaoImpl.class]
2015-12-20 15:26:52 DEBUG PathMatchingResourcePatternResolver:631 - Looking for matching resources in directory tree [C:\Users\Palina_Talkachova@epam.com\Eclipse\workspace\news-management\news-common\target\classes\com\epam\newsmanagement\service]
2015-12-20 15:26:52 DEBUG PathMatchingResourcePatternResolver:693 - Searching directory [C:\Users\Palina_Talkachova@epam.com\Eclipse\workspace\news-management\news-common\target\classes\com\epam\newsmanagement\service] for files matching pattern [C:/Users/Palina_Talkachova@epam.com/Eclipse/workspace/news-management/news-common/target/classes/com/epam/newsmanagement/service/**/*.class]
2015-12-20 15:26:52 DEBUG PathMatchingResourcePatternResolver:693 - Searching directory [C:\Users\Palina_Talkachova@epam.com\Eclipse\workspace\news-management\news-common\target\classes\com\epam\newsmanagement\service\impl] for files matching pattern [C:/Users/Palina_Talkachova@epam.com/Eclipse/workspace/news-management/news-common/target/classes/com/epam/newsmanagement/service/**/*.class]
2015-12-20 15:26:52 DEBUG PathMatchingResourcePatternResolver:424 - Resolved location pattern [classpath*:com/epam/newsmanagement/service/**/*.class] to resources [file [C:\Users\Palina_Talkachova@epam.com\Eclipse\workspace\news-management\news-common\target\classes\com\epam\newsmanagement\service\IAuthorService.class], file [C:\Users\Palina_Talkachova@epam.com\Eclipse\workspace\news-management\news-common\target\classes\com\epam\newsmanagement\service\ICommentService.class], file [C:\Users\Palina_Talkachova@epam.com\Eclipse\workspace\news-management\news-common\target\classes\com\epam\newsmanagement\service\impl\AuthorServiceImpl.class], file [C:\Users\Palina_Talkachova@epam.com\Eclipse\workspace\news-management\news-common\target\classes\com\epam\newsmanagement\service\impl\CommentServiceImpl.class], file [C:\Users\Palina_Talkachova@epam.com\Eclipse\workspace\news-management\news-common\target\classes\com\epam\newsmanagement\service\impl\NewsHandlingServiceImpl.class], file [C:\Users\Palina_Talkachova@epam.com\Eclipse\workspace\news-management\news-common\target\classes\com\epam\newsmanagement\service\impl\NewsServiceImpl.class], file [C:\Users\Palina_Talkachova@epam.com\Eclipse\workspace\news-management\news-common\target\classes\com\epam\newsmanagement\service\impl\TagServiceImpl.class], file [C:\Users\Palina_Talkachova@epam.com\Eclipse\workspace\news-management\news-common\target\classes\com\epam\newsmanagement\service\INewsHandlingService.class], file [C:\Users\Palina_Talkachova@epam.com\Eclipse\workspace\news-management\news-common\target\classes\com\epam\newsmanagement\service\INewsService.class], file [C:\Users\Palina_Talkachova@epam.com\Eclipse\workspace\news-management\news-common\target\classes\com\epam\newsmanagement\service\IService.class], file [C:\Users\Palina_Talkachova@epam.com\Eclipse\workspace\news-management\news-common\target\classes\com\epam\newsmanagement\service\ITagService.class]]
2015-12-20 15:26:52 DEBUG ClassPathBeanDefinitionScanner:286 - Identified candidate component class: file [C:\Users\Palina_Talkachova@epam.com\Eclipse\workspace\news-management\news-common\target\classes\com\epam\newsmanagement\service\impl\AuthorServiceImpl.class]
2015-12-20 15:26:52 DEBUG ClassPathBeanDefinitionScanner:286 - Identified candidate component class: file [C:\Users\Palina_Talkachova@epam.com\Eclipse\workspace\news-management\news-common\target\classes\com\epam\newsmanagement\service\impl\CommentServiceImpl.class]
2015-12-20 15:26:52 DEBUG ClassPathBeanDefinitionScanner:286 - Identified candidate component class: file [C:\Users\Palina_Talkachova@epam.com\Eclipse\workspace\news-management\news-common\target\classes\com\epam\newsmanagement\service\impl\NewsHandlingServiceImpl.class]
2015-12-20 15:26:52 DEBUG ClassPathBeanDefinitionScanner:286 - Identified candidate component class: file [C:\Users\Palina_Talkachova@epam.com\Eclipse\workspace\news-management\news-common\target\classes\com\epam\newsmanagement\service\impl\NewsServiceImpl.class]
2015-12-20 15:26:52 DEBUG ClassPathBeanDefinitionScanner:286 - Identified candidate component class: file [C:\Users\Palina_Talkachova@epam.com\Eclipse\workspace\news-management\news-common\target\classes\com\epam\newsmanagement\service\impl\TagServiceImpl.class]
2015-12-20 15:26:52 DEBUG PathMatchingResourcePatternResolver:631 - Looking for matching resources in directory tree [C:\Users\Palina_Talkachova@epam.com\Eclipse\workspace\news-management\news-common\target\classes\com\epam\newsmanagement\run]
2015-12-20 15:26:52 DEBUG PathMatchingResourcePatternResolver:693 - Searching directory [C:\Users\Palina_Talkachova@epam.com\Eclipse\workspace\news-management\news-common\target\classes\com\epam\newsmanagement\run] for files matching pattern [C:/Users/Palina_Talkachova@epam.com/Eclipse/workspace/news-management/news-common/target/classes/com/epam/newsmanagement/run/**/*.class]
2015-12-20 15:26:52 DEBUG PathMatchingResourcePatternResolver:424 - Resolved location pattern [classpath*:com/epam/newsmanagement/run/**/*.class] to resources [file [C:\Users\Palina_Talkachova@epam.com\Eclipse\workspace\news-management\news-common\target\classes\com\epam\newsmanagement\run\Runner.class]]
2015-12-20 15:26:52 DEBUG ClassPathBeanDefinitionScanner:286 - Identified candidate component class: file [C:\Users\Palina_Talkachova@epam.com\Eclipse\workspace\news-management\news-common\target\classes\com\epam\newsmanagement\run\Runner.class]
2015-12-20 15:26:52 DEBUG ConfigurationClassBeanDefinitionReader:164 - Registered bean definition for imported class 'org.springframework.transaction.annotation.ProxyTransactionManagementConfiguration'
2015-12-20 15:26:52 DEBUG ConfigurationClassBeanDefinitionReader:256 - Registering bean definition for @Bean method org.springframework.transaction.annotation.ProxyTransactionManagementConfiguration.org.springframework.transaction.config.internalTransactionAdvisor()
2015-12-20 15:26:52 DEBUG ConfigurationClassBeanDefinitionReader:256 - Registering bean definition for @Bean method org.springframework.transaction.annotation.ProxyTransactionManagementConfiguration.transactionAttributeSource()
2015-12-20 15:26:52 DEBUG ConfigurationClassBeanDefinitionReader:256 - Registering bean definition for @Bean method org.springframework.transaction.annotation.ProxyTransactionManagementConfiguration.transactionInterceptor()
2015-12-20 15:26:52 DEBUG ConfigurationClassBeanDefinitionReader:256 - Registering bean definition for @Bean method org.springframework.transaction.annotation.ProxyTransactionManagementConfiguration.org.springframework.transaction.config.internalTransactionalEventListenerFactory()
2015-12-20 15:26:52 DEBUG ConfigurationClassBeanDefinitionReader:256 - Registering bean definition for @Bean method com.epam.newsmanagement.config.ApplicationConfig.dataSource()
2015-12-20 15:26:52 DEBUG ConfigurationClassBeanDefinitionReader:256 - Registering bean definition for @Bean method com.epam.newsmanagement.config.ApplicationConfig.txManager()
2015-12-20 15:26:52 DEBUG ConfigurationClassEnhancer:111 - Successfully enhanced com.epam.newsmanagement.config.ApplicationConfig; enhanced class name is: com.epam.newsmanagement.config.ApplicationConfig$$EnhancerBySpringCGLIB$$2f2190db
2015-12-20 15:26:52 DEBUG ConfigurationClassPostProcessor:403 - Replacing bean definition 'applicationConfig' existing class name 'com.epam.newsmanagement.config.ApplicationConfig' with enhanced class name 'com.epam.newsmanagement.config.ApplicationConfig$$EnhancerBySpringCGLIB$$2f2190db'
2015-12-20 15:26:52 DEBUG ConfigurationClassEnhancer:111 - Successfully enhanced org.springframework.transaction.annotation.ProxyTransactionManagementConfiguration; enhanced class name is: org.springframework.transaction.annotation.ProxyTransactionManagementConfiguration$$EnhancerBySpringCGLIB$$52036322
2015-12-20 15:26:52 DEBUG ConfigurationClassPostProcessor:403 - Replacing bean definition 'org.springframework.transaction.annotation.ProxyTransactionManagementConfiguration' existing class name 'org.springframework.transaction.annotation.ProxyTransactionManagementConfiguration' with enhanced class name 'org.springframework.transaction.annotation.ProxyTransactionManagementConfiguration$$EnhancerBySpringCGLIB$$52036322'
2015-12-20 15:26:52 DEBUG DefaultListableBeanFactory:221 - Creating shared instance of singleton bean 'org.springframework.context.annotation.internalAutowiredAnnotationProcessor'
2015-12-20 15:26:52 DEBUG DefaultListableBeanFactory:448 - Creating instance of bean 'org.springframework.context.annotation.internalAutowiredAnnotationProcessor'
