2015-12-20 15:26:53 DEBUG DefaultListableBeanFactory:529 - Eagerly caching bean 'org.springframework.context.annotation.internalAutowiredAnnotationProcessor' to allow for resolving potential circular references
2015-12-20 15:26:53 DEBUG DefaultListableBeanFactory:484 - Finished creating instance of bean 'org.springframework.context.annotation.internalAutowiredAnnotationProcessor'
2015-12-20 15:26:53 DEBUG DefaultListableBeanFactory:221 - Creating shared instance of singleton bean 'org.springframework.context.annotation.internalRequiredAnnotationProcessor'
2015-12-20 15:26:53 DEBUG DefaultListableBeanFactory:448 - Creating instance of bean 'org.springframework.context.annotation.internalRequiredAnnotationProcessor'
2015-12-20 15:26:53 DEBUG DefaultListableBeanFactory:529 - Eagerly caching bean 'org.springframework.context.annotation.internalRequiredAnnotationProcessor' to allow for resolving potential circular references
2015-12-20 15:26:53 DEBUG DefaultListableBeanFactory:484 - Finished creating instance of bean 'org.springframework.context.annotation.internalRequiredAnnotationProcessor'
2015-12-20 15:26:53 DEBUG DefaultListableBeanFactory:221 - Creating shared instance of singleton bean 'org.springframework.context.annotation.internalCommonAnnotationProcessor'
2015-12-20 15:26:53 DEBUG DefaultListableBeanFactory:448 - Creating instance of bean 'org.springframework.context.annotation.internalCommonAnnotationProcessor'
2015-12-20 15:26:53 DEBUG DefaultListableBeanFactory:529 - Eagerly caching bean 'org.springframework.context.annotation.internalCommonAnnotationProcessor' to allow for resolving potential circular references
2015-12-20 15:26:53 DEBUG DefaultListableBeanFactory:484 - Finished creating instance of bean 'org.springframework.context.annotation.internalCommonAnnotationProcessor'
2015-12-20 15:26:53 DEBUG DefaultListableBeanFactory:221 - Creating shared instance of singleton bean 'org.springframework.context.annotation.ConfigurationClassPostProcessor.importAwareProcessor'
2015-12-20 15:26:53 DEBUG DefaultListableBeanFactory:448 - Creating instance of bean 'org.springframework.context.annotation.ConfigurationClassPostProcessor.importAwareProcessor'
2015-12-20 15:26:53 DEBUG DefaultListableBeanFactory:529 - Eagerly caching bean 'org.springframework.context.annotation.ConfigurationClassPostProcessor.importAwareProcessor' to allow for resolving potential circular references
2015-12-20 15:26:53 DEBUG DefaultListableBeanFactory:484 - Finished creating instance of bean 'org.springframework.context.annotation.ConfigurationClassPostProcessor.importAwareProcessor'
2015-12-20 15:26:53 DEBUG DefaultListableBeanFactory:221 - Creating shared instance of singleton bean 'org.springframework.context.annotation.ConfigurationClassPostProcessor.enhancedConfigurationProcessor'
2015-12-20 15:26:53 DEBUG DefaultListableBeanFactory:448 - Creating instance of bean 'org.springframework.context.annotation.ConfigurationClassPostProcessor.enhancedConfigurationProcessor'
2015-12-20 15:26:53 DEBUG DefaultListableBeanFactory:529 - Eagerly caching bean 'org.springframework.context.annotation.ConfigurationClassPostProcessor.enhancedConfigurationProcessor' to allow for resolving potential circular references
2015-12-20 15:26:53 DEBUG DefaultListableBeanFactory:484 - Finished creating instance of bean 'org.springframework.context.annotation.ConfigurationClassPostProcessor.enhancedConfigurationProcessor'
2015-12-20 15:26:53 DEBUG DefaultListableBeanFactory:221 - Creating shared instance of singleton bean 'org.springframework.aop.config.internalAutoProxyCreator'
2015-12-20 15:26:53 DEBUG DefaultListableBeanFactory:448 - Creating instance of bean 'org.springframework.aop.config.internalAutoProxyCreator'
2015-12-20 15:26:53 DEBUG DefaultListableBeanFactory:529 - Eagerly caching bean 'org.springframework.aop.config.internalAutoProxyCreator' to allow for resolving potential circular references
2015-12-20 15:26:53 DEBUG DefaultListableBeanFactory:484 - Finished creating instance of bean 'org.springframework.aop.config.internalAutoProxyCreator'
2015-12-20 15:26:53 DEBUG AnnotationConfigApplicationContext:713 - Unable to locate MessageSource with name 'messageSource': using default [org.springframework.context.support.DelegatingMessageSource@f8c1ddd]
2015-12-20 15:26:53 DEBUG AnnotationConfigApplicationContext:737 - Unable to locate ApplicationEventMulticaster with name 'applicationEventMulticaster': using default [org.springframework.context.event.SimpleApplicationEventMulticaster@60704c]
2015-12-20 15:26:53 DEBUG DefaultListableBeanFactory:741 - Pre-instantiating singletons in org.springframework.beans.factory.support.DefaultListableBeanFactory@6a41eaa2: defining beans [org.springframework.context.annotation.internalConfigurationAnnotationProcessor,org.springframework.context.annotation.internalAutowiredAnnotationProcessor,org.springframework.context.annotation.internalRequiredAnnotationProcessor,org.springframework.context.annotation.internalCommonAnnotationProcessor,org.springframework.context.event.internalEventListenerProcessor,org.springframework.context.event.internalEventListenerFactory,applicationConfig,org.springframework.context.annotation.ConfigurationClassPostProcessor.importAwareProcessor,org.springframework.context.annotation.ConfigurationClassPostProcessor.enhancedConfigurationProcessor,authorDaoImpl,commentDaoImpl,newsDaoImpl,tagDaoImpl,authorServiceImpl,commentServiceImpl,newsHandlingServiceImpl,newsServiceImpl,tagServiceImpl,runner,org.springframework.transaction.annotation.ProxyTransactionManagementConfiguration,org.springframework.transaction.config.internalTransactionAdvisor,transactionAttributeSource,transactionInterceptor,org.springframework.transaction.config.internalTransactionalEventListenerFactory,dataSource,txManager,org.springframework.aop.config.internalAutoProxyCreator]; root of factory hierarchy
2015-12-20 15:26:53 DEBUG DefaultListableBeanFactory:250 - Returning cached instance of singleton bean 'org.springframework.context.annotation.internalConfigurationAnnotationProcessor'
2015-12-20 15:26:53 DEBUG DefaultListableBeanFactory:250 - Returning cached instance of singleton bean 'org.springframework.context.annotation.internalAutowiredAnnotationProcessor'
2015-12-20 15:26:53 DEBUG DefaultListableBeanFactory:250 - Returning cached instance of singleton bean 'org.springframework.context.annotation.internalRequiredAnnotationProcessor'
2015-12-20 15:26:53 DEBUG DefaultListableBeanFactory:250 - Returning cached instance of singleton bean 'org.springframework.context.annotation.internalCommonAnnotationProcessor'
2015-12-20 15:26:53 DEBUG DefaultListableBeanFactory:221 - Creating shared instance of singleton bean 'org.springframework.context.event.internalEventListenerProcessor'
2015-12-20 15:26:53 DEBUG DefaultListableBeanFactory:448 - Creating instance of bean 'org.springframework.context.event.internalEventListenerProcessor'
2015-12-20 15:26:53 DEBUG DefaultListableBeanFactory:529 - Eagerly caching bean 'org.springframework.context.event.internalEventListenerProcessor' to allow for resolving potential circular references
2015-12-20 15:26:53 DEBUG DefaultListableBeanFactory:221 - Creating shared instance of singleton bean 'org.springframework.transaction.config.internalTransactionAdvisor'
2015-12-20 15:26:53 DEBUG DefaultListableBeanFactory:448 - Creating instance of bean 'org.springframework.transaction.config.internalTransactionAdvisor'
2015-12-20 15:26:53 DEBUG DefaultListableBeanFactory:221 - Creating shared instance of singleton bean 'org.springframework.transaction.annotation.ProxyTransactionManagementConfiguration'
2015-12-20 15:26:53 DEBUG DefaultListableBeanFactory:448 - Creating instance of bean 'org.springframework.transaction.annotation.ProxyTransactionManagementConfiguration'
2015-12-20 15:26:53 DEBUG InjectionMetadata:72 - Registered injected element on class [org.springframework.transaction.annotation.ProxyTransactionManagementConfiguration$$EnhancerBySpringCGLIB$$52036322]: AutowiredMethodElement for void org.springframework.transaction.annotation.AbstractTransactionManagementConfiguration.setConfigurers(java.util.Collection)
2015-12-20 15:26:53 DEBUG DefaultListableBeanFactory:529 - Eagerly caching bean 'org.springframework.transaction.annotation.ProxyTransactionManagementConfiguration' to allow for resolving potential circular references
2015-12-20 15:26:53 DEBUG InjectionMetadata:86 - Processing injected element of bean 'org.springframework.transaction.annotation.ProxyTransactionManagementConfiguration': AutowiredMethodElement for void org.springframework.transaction.annotation.AbstractTransactionManagementConfiguration.setConfigurers(java.util.Collection)
2015-12-20 15:26:53 DEBUG DefaultListableBeanFactory:250 - Returning cached instance of singleton bean 'org.springframework.context.annotation.ConfigurationClassPostProcessor.importRegistry'
2015-12-20 15:26:53 DEBUG BeanFactoryAdvisorRetrievalHelper:87 - Skipping currently created advisor 'org.springframework.transaction.config.internalTransactionAdvisor'
2015-12-20 15:26:53 DEBUG DefaultListableBeanFactory:484 - Finished creating instance of bean 'org.springframework.transaction.annotation.ProxyTransactionManagementConfiguration'
2015-12-20 15:26:53 DEBUG DefaultListableBeanFactory:221 - Creating shared instance of singleton bean 'transactionAttributeSource'
2015-12-20 15:26:53 DEBUG DefaultListableBeanFactory:448 - Creating instance of bean 'transactionAttributeSource'
2015-12-20 15:26:53 DEBUG DefaultListableBeanFactory:250 - Returning cached instance of singleton bean 'org.springframework.transaction.annotation.ProxyTransactionManagementConfiguration'
2015-12-20 15:26:53 DEBUG DefaultListableBeanFactory:529 - Eagerly caching bean 'transactionAttributeSource' to allow for resolving potential circular references
2015-12-20 15:26:53 DEBUG BeanFactoryAdvisorRetrievalHelper:87 - Skipping currently created advisor 'org.springframework.transaction.config.internalTransactionAdvisor'
2015-12-20 15:26:53 DEBUG DefaultListableBeanFactory:484 - Finished creating instance of bean 'transactionAttributeSource'
2015-12-20 15:26:53 DEBUG DefaultListableBeanFactory:221 - Creating shared instance of singleton bean 'transactionInterceptor'
2015-12-20 15:26:53 DEBUG DefaultListableBeanFactory:448 - Creating instance of bean 'transactionInterceptor'
2015-12-20 15:26:53 DEBUG DefaultListableBeanFactory:250 - Returning cached instance of singleton bean 'org.springframework.transaction.annotation.ProxyTransactionManagementConfiguration'
2015-12-20 15:26:53 DEBUG DefaultListableBeanFactory:250 - Returning cached instance of singleton bean 'transactionAttributeSource'
2015-12-20 15:26:53 DEBUG DefaultListableBeanFactory:529 - Eagerly caching bean 'transactionInterceptor' to allow for resolving potential circular references
2015-12-20 15:26:53 DEBUG DefaultListableBeanFactory:1620 - Invoking afterPropertiesSet() on bean with name 'transactionInterceptor'
2015-12-20 15:26:53 DEBUG DefaultListableBeanFactory:484 - Finished creating instance of bean 'transactionInterceptor'
2015-12-20 15:26:53 DEBUG DefaultListableBeanFactory:529 - Eagerly caching bean 'org.springframework.transaction.config.internalTransactionAdvisor' to allow for resolving potential circular references
2015-12-20 15:26:53 DEBUG DefaultListableBeanFactory:484 - Finished creating instance of bean 'org.springframework.transaction.config.internalTransactionAdvisor'
2015-12-20 15:26:53 DEBUG DefaultListableBeanFactory:484 - Finished creating instance of bean 'org.springframework.context.event.internalEventListenerProcessor'
2015-12-20 15:26:53 DEBUG DefaultListableBeanFactory:221 - Creating shared instance of singleton bean 'org.springframework.context.event.internalEventListenerFactory'
2015-12-20 15:26:53 DEBUG DefaultListableBeanFactory:448 - Creating instance of bean 'org.springframework.context.event.internalEventListenerFactory'
2015-12-20 15:26:53 DEBUG DefaultListableBeanFactory:529 - Eagerly caching bean 'org.springframework.context.event.internalEventListenerFactory' to allow for resolving potential circular references
2015-12-20 15:26:53 DEBUG DefaultListableBeanFactory:250 - Returning cached instance of singleton bean 'org.springframework.transaction.config.internalTransactionAdvisor'
2015-12-20 15:26:53 DEBUG DefaultListableBeanFactory:484 - Finished creating instance of bean 'org.springframework.context.event.internalEventListenerFactory'
2015-12-20 15:26:53 DEBUG DefaultListableBeanFactory:221 - Creating shared instance of singleton bean 'applicationConfig'
2015-12-20 15:26:53 DEBUG DefaultListableBeanFactory:448 - Creating instance of bean 'applicationConfig'
2015-12-20 15:26:53 DEBUG InjectionMetadata:72 - Registered injected element on class [com.epam.newsmanagement.config.ApplicationConfig$$EnhancerBySpringCGLIB$$2f2190db]: AutowiredFieldElement for private org.springframework.core.env.Environment com.epam.newsmanagement.config.ApplicationConfig.env
2015-12-20 15:26:53 DEBUG DefaultListableBeanFactory:529 - Eagerly caching bean 'applicationConfig' to allow for resolving potential circular references
2015-12-20 15:26:53 DEBUG InjectionMetadata:86 - Processing injected element of bean 'applicationConfig': AutowiredFieldElement for private org.springframework.core.env.Environment com.epam.newsmanagement.config.ApplicationConfig.env
2015-12-20 15:26:53 DEBUG DefaultListableBeanFactory:250 - Returning cached instance of singleton bean 'environment'
2015-12-20 15:26:53 DEBUG AutowiredAnnotationBeanPostProcessor:490 - Autowiring by type from bean name 'applicationConfig' to bean named 'environment'
2015-12-20 15:26:53 DEBUG DefaultListableBeanFactory:250 - Returning cached instance of singleton bean 'org.springframework.transaction.config.internalTransactionAdvisor'
2015-12-20 15:26:53 DEBUG DefaultListableBeanFactory:484 - Finished creating instance of bean 'applicationConfig'
2015-12-20 15:26:53 DEBUG DefaultListableBeanFactory:250 - Returning cached instance of singleton bean 'org.springframework.context.annotation.ConfigurationClassPostProcessor.importAwareProcessor'
2015-12-20 15:26:53 DEBUG DefaultListableBeanFactory:250 - Returning cached instance of singleton bean 'org.springframework.context.annotation.ConfigurationClassPostProcessor.enhancedConfigurationProcessor'
2015-12-20 15:26:53 DEBUG DefaultListableBeanFactory:221 - Creating shared instance of singleton bean 'authorDaoImpl'
2015-12-20 15:26:53 DEBUG DefaultListableBeanFactory:448 - Creating instance of bean 'authorDaoImpl'
2015-12-20 15:26:53 DEBUG InjectionMetadata:72 - Registered injected element on class [com.epam.newsmanagement.dao.impl.AuthorDaoImpl]: AutowiredFieldElement for private javax.sql.DataSource com.epam.newsmanagement.dao.impl.AuthorDaoImpl.dataSource
2015-12-20 15:26:53 DEBUG DefaultListableBeanFactory:529 - Eagerly caching bean 'authorDaoImpl' to allow for resolving potential circular references
2015-12-20 15:26:53 DEBUG InjectionMetadata:86 - Processing injected element of bean 'authorDaoImpl': AutowiredFieldElement for private javax.sql.DataSource com.epam.newsmanagement.dao.impl.AuthorDaoImpl.dataSource
2015-12-20 15:26:53 DEBUG DefaultListableBeanFactory:221 - Creating shared instance of singleton bean 'dataSource'
2015-12-20 15:26:53 DEBUG DefaultListableBeanFactory:448 - Creating instance of bean 'dataSource'
2015-12-20 15:26:53 DEBUG DefaultListableBeanFactory:250 - Returning cached instance of singleton bean 'applicationConfig'
2015-12-20 15:26:53 DEBUG PropertySourcesPropertyResolver:81 - Searching for key 'db.driver' in [systemProperties]
2015-12-20 15:26:53 DEBUG PropertySourcesPropertyResolver:81 - Searching for key 'db.driver' in [systemEnvironment]
2015-12-20 15:26:53 DEBUG PropertySourcesPropertyResolver:81 - Searching for key 'db.driver' in [class path resource [db.properties]]
2015-12-20 15:26:53 DEBUG PropertySourcesPropertyResolver:90 - Found key 'db.driver' in [class path resource [db.properties]] with type [String] and value 'oracle.jdbc.driver.OracleDriver'
2015-12-20 15:26:53 DEBUG PropertySourcesPropertyResolver:81 - Searching for key 'db.url' in [systemProperties]
2015-12-20 15:26:53 DEBUG PropertySourcesPropertyResolver:81 - Searching for key 'db.url' in [systemEnvironment]
2015-12-20 15:26:53 DEBUG PropertySourcesPropertyResolver:81 - Searching for key 'db.url' in [class path resource [db.properties]]
2015-12-20 15:26:53 DEBUG PropertySourcesPropertyResolver:90 - Found key 'db.url' in [class path resource [db.properties]] with type [String] and value 'jdbc:oracle:thin:@localhost:1521:xe'
2015-12-20 15:26:53 DEBUG PropertySourcesPropertyResolver:81 - Searching for key 'db.username' in [systemProperties]
2015-12-20 15:26:53 DEBUG PropertySourcesPropertyResolver:81 - Searching for key 'db.username' in [systemEnvironment]
2015-12-20 15:26:53 DEBUG PropertySourcesPropertyResolver:81 - Searching for key 'db.username' in [class path resource [db.properties]]
2015-12-20 15:26:53 DEBUG PropertySourcesPropertyResolver:90 - Found key 'db.username' in [class path resource [db.properties]] with type [String] and value 'Polina'
2015-12-20 15:26:53 DEBUG PropertySourcesPropertyResolver:81 - Searching for key 'db.password' in [systemProperties]
2015-12-20 15:26:53 DEBUG PropertySourcesPropertyResolver:81 - Searching for key 'db.password' in [systemEnvironment]
2015-12-20 15:26:53 DEBUG PropertySourcesPropertyResolver:81 - Searching for key 'db.password' in [class path resource [db.properties]]
2015-12-20 15:26:53 DEBUG PropertySourcesPropertyResolver:90 - Found key 'db.password' in [class path resource [db.properties]] with type [String] and value 'pass'
2015-12-20 15:26:53 DEBUG PropertySourcesPropertyResolver:81 - Searching for key 'db.initialsize' in [systemProperties]
2015-12-20 15:26:53 DEBUG PropertySourcesPropertyResolver:81 - Searching for key 'db.initialsize' in [systemEnvironment]
2015-12-20 15:26:53 DEBUG PropertySourcesPropertyResolver:81 - Searching for key 'db.initialsize' in [class path resource [db.properties]]
2015-12-20 15:26:53 DEBUG PropertySourcesPropertyResolver:90 - Found key 'db.initialsize' in [class path resource [db.properties]] with type [String] and value '30'
2015-12-20 15:26:53 DEBUG DefaultListableBeanFactory:529 - Eagerly caching bean 'dataSource' to allow for resolving potential circular references
2015-12-20 15:26:53 DEBUG DefaultListableBeanFactory:250 - Returning cached instance of singleton bean 'org.springframework.transaction.config.internalTransactionAdvisor'
2015-12-20 15:26:53 DEBUG DefaultListableBeanFactory:484 - Finished creating instance of bean 'dataSource'
2015-12-20 15:26:53 DEBUG AutowiredAnnotationBeanPostProcessor:490 - Autowiring by type from bean name 'authorDaoImpl' to bean named 'dataSource'
2015-12-20 15:26:53 DEBUG DefaultListableBeanFactory:250 - Returning cached instance of singleton bean 'org.springframework.transaction.config.internalTransactionAdvisor'
2015-12-20 15:26:53 DEBUG DefaultListableBeanFactory:484 - Finished creating instance of bean 'authorDaoImpl'
2015-12-20 15:26:53 DEBUG DefaultListableBeanFactory:221 - Creating shared instance of singleton bean 'commentDaoImpl'
2015-12-20 15:26:53 DEBUG DefaultListableBeanFactory:448 - Creating instance of bean 'commentDaoImpl'
2015-12-20 15:26:53 DEBUG DefaultListableBeanFactory:529 - Eagerly caching bean 'commentDaoImpl' to allow for resolving potential circular references
2015-12-20 15:26:53 DEBUG DefaultListableBeanFactory:250 - Returning cached instance of singleton bean 'org.springframework.transaction.config.internalTransactionAdvisor'
2015-12-20 15:26:53 DEBUG DefaultListableBeanFactory:484 - Finished creating instance of bean 'commentDaoImpl'
2015-12-20 15:26:53 DEBUG DefaultListableBeanFactory:221 - Creating shared instance of singleton bean 'newsDaoImpl'
2015-12-20 15:26:53 DEBUG DefaultListableBeanFactory:448 - Creating instance of bean 'newsDaoImpl'
2015-12-20 15:26:53 DEBUG DefaultListableBeanFactory:529 - Eagerly caching bean 'newsDaoImpl' to allow for resolving potential circular references
2015-12-20 15:26:53 DEBUG DefaultListableBeanFactory:250 - Returning cached instance of singleton bean 'org.springframework.transaction.config.internalTransactionAdvisor'
2015-12-20 15:26:53 DEBUG DefaultListableBeanFactory:484 - Finished creating instance of bean 'newsDaoImpl'
2015-12-20 15:26:53 DEBUG DefaultListableBeanFactory:221 - Creating shared instance of singleton bean 'tagDaoImpl'
2015-12-20 15:26:53 DEBUG DefaultListableBeanFactory:448 - Creating instance of bean 'tagDaoImpl'
2015-12-20 15:26:53 DEBUG DefaultListableBeanFactory:529 - Eagerly caching bean 'tagDaoImpl' to allow for resolving potential circular references
2015-12-20 15:26:53 DEBUG DefaultListableBeanFactory:250 - Returning cached instance of singleton bean 'org.springframework.transaction.config.internalTransactionAdvisor'
2015-12-20 15:26:53 DEBUG DefaultListableBeanFactory:484 - Finished creating instance of bean 'tagDaoImpl'
2015-12-20 15:26:53 DEBUG DefaultListableBeanFactory:221 - Creating shared instance of singleton bean 'authorServiceImpl'
2015-12-20 15:26:53 DEBUG DefaultListableBeanFactory:448 - Creating instance of bean 'authorServiceImpl'
2015-12-20 15:26:53 DEBUG InjectionMetadata:72 - Registered injected element on class [com.epam.newsmanagement.service.impl.AuthorServiceImpl]: AutowiredFieldElement for private com.epam.newsmanagement.dao.IAuthorDao com.epam.newsmanagement.service.impl.AuthorServiceImpl.authorDao
2015-12-20 15:26:53 DEBUG DefaultListableBeanFactory:529 - Eagerly caching bean 'authorServiceImpl' to allow for resolving potential circular references
2015-12-20 15:26:53 DEBUG InjectionMetadata:86 - Processing injected element of bean 'authorServiceImpl': AutowiredFieldElement for private com.epam.newsmanagement.dao.IAuthorDao com.epam.newsmanagement.service.impl.AuthorServiceImpl.authorDao
2015-12-20 15:26:53 DEBUG DefaultListableBeanFactory:250 - Returning cached instance of singleton bean 'authorDaoImpl'
2015-12-20 15:26:53 DEBUG AutowiredAnnotationBeanPostProcessor:490 - Autowiring by type from bean name 'authorServiceImpl' to bean named 'authorDaoImpl'
2015-12-20 15:26:53 DEBUG DefaultListableBeanFactory:250 - Returning cached instance of singleton bean 'org.springframework.transaction.config.internalTransactionAdvisor'
2015-12-20 15:26:53 DEBUG DefaultListableBeanFactory:484 - Finished creating instance of bean 'authorServiceImpl'
2015-12-20 15:26:53 DEBUG DefaultListableBeanFactory:221 - Creating shared instance of singleton bean 'commentServiceImpl'
2015-12-20 15:26:53 DEBUG DefaultListableBeanFactory:448 - Creating instance of bean 'commentServiceImpl'
2015-12-20 15:26:53 DEBUG DefaultListableBeanFactory:529 - Eagerly caching bean 'commentServiceImpl' to allow for resolving potential circular references
2015-12-20 15:26:53 DEBUG DefaultListableBeanFactory:250 - Returning cached instance of singleton bean 'org.springframework.transaction.config.internalTransactionAdvisor'
2015-12-20 15:26:53 DEBUG DefaultListableBeanFactory:484 - Finished creating instance of bean 'commentServiceImpl'
2015-12-20 15:26:53 DEBUG DefaultListableBeanFactory:221 - Creating shared instance of singleton bean 'newsHandlingServiceImpl'
2015-12-20 15:26:53 DEBUG DefaultListableBeanFactory:448 - Creating instance of bean 'newsHandlingServiceImpl'
2015-12-20 15:26:53 DEBUG InjectionMetadata:72 - Registered injected element on class [com.epam.newsmanagement.service.impl.NewsHandlingServiceImpl]: AutowiredFieldElement for private com.epam.newsmanagement.service.INewsService com.epam.newsmanagement.service.impl.NewsHandlingServiceImpl.newsServiceImpl
2015-12-20 15:26:53 DEBUG InjectionMetadata:72 - Registered injected element on class [com.epam.newsmanagement.service.impl.NewsHandlingServiceImpl]: AutowiredFieldElement for private com.epam.newsmanagement.service.IAuthorService com.epam.newsmanagement.service.impl.NewsHandlingServiceImpl.authorServiceImpl
2015-12-20 15:26:53 DEBUG InjectionMetadata:72 - Registered injected element on class [com.epam.newsmanagement.service.impl.NewsHandlingServiceImpl]: AutowiredFieldElement for private com.epam.newsmanagement.service.ITagService com.epam.newsmanagement.service.impl.NewsHandlingServiceImpl.tagServiceImpl
2015-12-20 15:26:53 DEBUG InjectionMetadata:72 - Registered injected element on class [com.epam.newsmanagement.service.impl.NewsHandlingServiceImpl]: AutowiredFieldElement for private com.epam.newsmanagement.service.ICommentService com.epam.newsmanagement.service.impl.NewsHandlingServiceImpl.commentServiceImpl
2015-12-20 15:26:53 DEBUG DefaultListableBeanFactory:529 - Eagerly caching bean 'newsHandlingServiceImpl' to allow for resolving potential circular references
2015-12-20 15:26:53 DEBUG InjectionMetadata:86 - Processing injected element of bean 'newsHandlingServiceImpl': AutowiredFieldElement for private com.epam.newsmanagement.service.INewsService com.epam.newsmanagement.service.impl.NewsHandlingServiceImpl.newsServiceImpl
2015-12-20 15:26:53 DEBUG DefaultListableBeanFactory:221 - Creating shared instance of singleton bean 'newsServiceImpl'
2015-12-20 15:26:53 DEBUG DefaultListableBeanFactory:448 - Creating instance of bean 'newsServiceImpl'
2015-12-20 15:26:53 DEBUG DefaultListableBeanFactory:529 - Eagerly caching bean 'newsServiceImpl' to allow for resolving potential circular references
2015-12-20 15:26:53 DEBUG DefaultListableBeanFactory:250 - Returning cached instance of singleton bean 'org.springframework.transaction.config.internalTransactionAdvisor'
