-------------------------------------------------------------------------------
Test set: com.epam.newsmanagement.dao.impl.TagDaoImplTest
-------------------------------------------------------------------------------
Tests run: 6, Failures: 0, Errors: 0, Skipped: 0, Time elapsed: 0.694 sec
